<?xml version="1.0" encoding="UTF-8" standalone="no"?>
<!-- Created with Inkscape (http://www.inkscape.org/) -->
<svg
   xmlns:dc="http://purl.org/dc/elements/1.1/"
   xmlns:cc="http://web.resource.org/cc/"
   xmlns:rdf="http://www.w3.org/1999/02/22-rdf-syntax-ns#"
   xmlns:svg="http://www.w3.org/2000/svg"
   xmlns="http://www.w3.org/2000/svg"
   xmlns:xlink="http://www.w3.org/1999/xlink"
   xmlns:sodipodi="http://sodipodi.sourceforge.net/DTD/sodipodi-0.dtd"
   xmlns:inkscape="http://www.inkscape.org/namespaces/inkscape"
   width="16"
   height="16"
   id="svg2"
   sodipodi:version="0.32"
   inkscape:version="0.44.1"
   version="1.0"
   sodipodi:docbase="/home/bob/code/brianalyse/brianalyze/images"
   sodipodi:docname="pause.svg"
   inkscape:export-filename="/home/bob/code/brianalyse/brianalyze/images/pause.png"
   inkscape:export-xdpi="90"
   inkscape:export-ydpi="90">
  <defs
     id="defs4">
    <linearGradient
       inkscape:collect="always"
       id="linearGradient4573">
      <stop
         style="stop-color:#0f1621;stop-opacity:1;"
         offset="0"
         id="stop4575" />
      <stop
         style="stop-color:#0f1621;stop-opacity:0;"
         offset="1"
         id="stop4577" />
    </linearGradient>
    <linearGradient
       inkscape:collect="always"
       id="linearGradient4563">
      <stop
         style="stop-color:#0f1621;stop-opacity:1;"
         offset="0"
         id="stop4565" />
      <stop
         style="stop-color:#0f1621;stop-opacity:0;"
         offset="1"
         id="stop4567" />
    </linearGradient>
    <linearGradient
       inkscape:collect="always"
       id="linearGradient4553">
      <stop
         style="stop-color:#0f1621;stop-opacity:1;"
         offset="0"
         id="stop4555" />
      <stop
         style="stop-color:#0f1621;stop-opacity:0;"
         offset="1"
         id="stop4557" />
    </linearGradient>
    <linearGradient
       id="linearGradient2786">
      <stop
         style="stop-color:white;stop-opacity:1"
         offset="0"
         id="stop2788" />
      <stop
         style="stop-color:white;stop-opacity:0"
         offset="1"
         id="stop2790" />
    </linearGradient>
    <linearGradient
       id="linearGradient2778">
      <stop
         id="stop2780"
         offset="0"
         style="stop-color:#0f1621;stop-opacity:1" />
      <stop
         id="stop2782"
         offset="1"
         style="stop-color:#3c4f6a;stop-opacity:1" />
    </linearGradient>
    <linearGradient
       id="linearGradient2760">
      <stop
         style="stop-color:#274064;stop-opacity:1"
         offset="0"
         id="stop2762" />
      <stop
         style="stop-color:#607eab;stop-opacity:1"
         offset="1"
         id="stop2764" />
    </linearGradient>
    <clipPath
       clipPathUnits="userSpaceOnUse"
       id="clipPath2850">
      <path
         style="fill:none;fill-opacity:1;fill-rule:evenodd;stroke:black;stroke-width:0.2;stroke-linecap:butt;stroke-linejoin:miter;stroke-miterlimit:4;stroke-dasharray:none;stroke-opacity:1"
         d="M 1.5238095,5.4462081 C 2.7703382,5.6997704 4.1658934,5.6552796 5.5590829,5.6155203 C 5.666535,4.2902375 5.7214075,2.9518098 5.5308642,1.5520282 C 7.137377,1.5376529 8.4856185,1.6954585 10.497354,1.4109347 C 10.738071,2.7040054 10.440917,4.1763668 10.412698,5.5590829 C 11.446136,5.3751936 12.899459,5.3487609 14.532628,5.3897707 C 14.363599,7.0287358 14.157912,8.6768652 14.27866,10.243386 C 13.211405,10.100676 11.286574,10.31036 10.440917,10.610229 C 10.203421,11.73487 10.339677,13.139825 10.38448,14.47619 C 8.7289831,14.396105 7.0734863,14.35038 5.4179894,14.419753 C 5.7201955,13.25338 5.2440553,11.80482 5.5308642,10.497354 C 5.0596912,10.385454 2.0000594,10.115587 1.6366843,10.525573 C 1.6306821,8.8324514 1.7996119,7.1393297 1.5238095,5.4462081 z "
         id="path2794"
         sodipodi:nodetypes="ccccccccccccc" />
    </clipPath>
    <linearGradient
       inkscape:collect="always"
       xlink:href="#linearGradient4553"
       id="linearGradient4559"
       x1="0.882716"
       y1="7.7037035"
       x2="5.212522"
       y2="7.7037035"
       gradientUnits="userSpaceOnUse" />
    <linearGradient
       inkscape:collect="always"
       xlink:href="#linearGradient4563"
       id="linearGradient4569"
       x1="3.978836"
       y1="7.9858906"
       x2="11.738977"
       y2="7.9858906"
       gradientUnits="userSpaceOnUse" />
    <linearGradient
       inkscape:collect="always"
       xlink:href="#linearGradient4573"
       id="linearGradient4579"
       x1="10.702822"
       y1="8.6772486"
       x2="15.230159"
       y2="8.6772486"
       gradientUnits="userSpaceOnUse" />
    <radialGradient
       inkscape:collect="always"
       xlink:href="#linearGradient2778"
       id="radialGradient2814"
       gradientUnits="userSpaceOnUse"
       gradientTransform="matrix(7.189388,-1.48405,0.685189,3.319354,-26.68272,-17.51223)"
       cx="3.1141164"
       cy="9.6222734"
       fx="3.1141164"
       fy="9.6222734"
       r="2.5" />
    <radialGradient
       inkscape:collect="always"
       xlink:href="#linearGradient2760"
       id="radialGradient2829"
       cx="10.152434"
       cy="6.6486158"
       fx="10.152434"
       fy="6.6486158"
       r="5"
       gradientUnits="userSpaceOnUse"
       gradientTransform="matrix(3.290621,-1.139955,0.730834,2.109639,-27.99767,5.0287)" />
    <radialGradient
       inkscape:collect="always"
       xlink:href="#linearGradient2786"
       id="radialGradient2874"
       gradientUnits="userSpaceOnUse"
       gradientTransform="matrix(1.233927,-3.171352e-2,2.665869e-2,1.037251,-1.881384,-0.83311)"
       cx="6.8378658"
       cy="7.5895452"
       fx="6.8378658"
       fy="7.5895452"
       r="5.5" />
  </defs>
  <sodipodi:namedview
     id="base"
     pagecolor="#ffffff"
     bordercolor="#666666"
     borderopacity="1.0"
     gridtolerance="10000"
     guidetolerance="10"
     objecttolerance="10"
     inkscape:pageopacity="0.0"
     inkscape:pageshadow="2"
     inkscape:zoom="35.4375"
     inkscape:cx="8"
     inkscape:cy="8"
     inkscape:document-units="px"
     inkscape:current-layer="layer1"
     showgrid="true"
     width="16px"
     height="16px"
     gridempspacing="4"
     inkscape:grid-bbox="false"
     inkscape:grid-points="true"
     gridspacingx="0.5px"
     gridspacingy="0.5px"
     inkscape:window-width="1152"
     inkscape:window-height="769"
     inkscape:window-x="0"
     inkscape:window-y="25" />
  <metadata
     id="metadata7">
    <rdf:RDF>
      <cc:Work
         rdf:about="">
        <dc:format>image/svg+xml</dc:format>
        <dc:type
           rdf:resource="http://purl.org/dc/dcmitype/StillImage" />
      </cc:Work>
    </rdf:RDF>
  </metadata>
  <g
     inkscape:label="Layer 1"
     inkscape:groupmode="layer"
     id="layer1">
    <path
       style="fill:white;fill-opacity:1;fill-rule:evenodd;stroke:none;stroke-width:1px;stroke-linecap:butt;stroke-linejoin:miter;stroke-opacity:1;opacity:0.8"
       d="M 2,2 L 5,1.5 L 7.5,2 L 8,8 L 8.5,2 L 11,1.5 L 14,2 L 14.5,8 L 14,14 L 11,14.5 L 8.5,14 L 8,8 L 7.5,14 L 5,14.5 L 2,14 L 1.5,8 L 2,2 z "
       id="path2894"
       sodipodi:nodetypes="ccccccccccccccccc" />
    <path
       id="rect1910"
       style="opacity:1;color:black;fill:url(#radialGradient2814);fill-opacity:1;fill-rule:evenodd;stroke:none;stroke-width:0.2;stroke-linecap:round;stroke-linejoin:miter;stroke-miterlimit:4;stroke-dashoffset:0;stroke-opacity:1;marker:none;marker-start:none;marker-mid:none;marker-end:none;visibility:visible;display:inline;overflow:visible"
       d="M 2,2 L 7,2 L 7,14 L 2,14 L 2,2 z M 9,2 L 14,2 L 14,14 L 9,14 L 9,2 z " />
    <path
       id="rect2816"
       style="color:black;fill:url(#radialGradient2829);fill-opacity:1.0;fill-rule:evenodd;stroke:none;stroke-width:0.2;stroke-linecap:round;stroke-linejoin:miter;stroke-miterlimit:4;stroke-dashoffset:0;stroke-opacity:1;marker:none;marker-start:none;marker-mid:none;marker-end:none;visibility:visible;display:inline;overflow:visible"
       d="M 3,3 L 6,3 L 6,13 L 3,13 L 3,3 z M 10,3 L 13,3 L 13,13 L 10,13 L 10,3 z " />
    <path
       id="path2831"
       style="opacity:0.45;fill:url(#radialGradient2874);fill-opacity:1;fill-rule:evenodd;stroke:none;stroke-width:1px;stroke-linecap:butt;stroke-linejoin:miter;stroke-opacity:1"
       d="M 2.5,9 L 2.5,2.5 L 6.5,2.5 L 6.4717813,7.5079365 C 5.1478542,8.293681 3.8239271,8.6567951 2.5,9 z M 9.5,2.5 L 13.5,2.5 L 13.471781,4.35097 C 12.60189,5.084491 11.072268,5.8162284 9.5,6.2539683 L 9.5,2.5 z M 2.5114638,12.162258 C 3.2327686,11.631679 5.1441422,11.497751 6.4620811,10.412698 L 6.5185185,11.992945 C 5.6246866,12.09183 3.3280862,12.751006 2.5961199,13.460317 L 2.5114638,12.162258 z M 9.5379189,9.0864198 C 9.9172677,8.5878466 12.709014,6.2603397 13.544974,6.2363316 L 13.460317,7.3932981 C 12.726631,7.9200471 9.8140864,10.769012 9.5097002,12.416226 L 9.5379189,9.0864198 z "
       sodipodi:nodetypes="cccccccccccccccccccc" />
  </g>
</svg>
